…
``` r
# Create a dataset for St Paul's Hospital Vacation
(vacation_weekly <- exception_hours %>% 
  filter(SITE == "St Paul's Hospital", EXCEPTION_GROUP == 'Vacation') %>% 
  # extract year and week
  mutate(year = year(SHIFT_DATE),
         week = week(SHIFT_DATE)) %>% 
  group_by(year, week) %>%
  summarise(count = n()) %>% 
  # remove the last week of each year (week 53), since they consider few days
  filter(week != 53)
)
```

    ## # A tibble: 260 x 3
    ## # Groups:   year [5]
    ##     year  week count
    ##    <dbl> <dbl> <int>
    ##  1  2013     1   859
    ##  2  2013     2   473
    ##  3  2013     3   367
    ##  4  2013     4   381
    ##  5  2013     5   425
    ##  6  2013     6   419
    ##  7  2013     7   574
    ##  8  2013     8   483
    ##  9  2013     9   401
    ## 10  2013    10   399
    ## # … with 250 more rows
…
# Create a dataset for sick
(sick_weekly <- exception_hours %>% 
  filter(SITE == "St Paul's Hospital",
         EXCEPTION_GROUP %in% c('Paid Sick', 'Unpaid Sick', 'Relief Sick')) %>% 
    # extract year and week
  mutate(year = year(SHIFT_DATE),
         week = week(SHIFT_DATE)) %>% 
  group_by(year, week) %>%
  summarise(count = n()) %>% 
  # remove the last week of each year (week 53), since they consider few days
  filter(week != 53)
)
```

    ## # A tibble: 260 x 3
    ## # Groups:   year [5]
    ##     year  week count
    ##    <dbl> <dbl> <int>
    ##  1  2013     1   548
    ##  2  2013     2   716
    ##  3  2013     3   704
    ##  4  2013     4   648
    ##  5  2013     5   584
    ##  6  2013     6   485
    ##  7  2013     7   564
    ##  8  2013     8   566
    ##  9  2013     9   563
    ## 10  2013    10   558
    ## # … with 250 more rows
…
**Observations:**

-   All analyses (monthly and weekly for productive hours, exception hours and number of exceptions) indicate an increasing trend over the years.
-   The weekly analyses show that the seasonal component has a trough every year during week 52, i.e. much lower numbers for productive hours, exception hours and number of exceptions in comparison to other surrounding weeks.

``` r
excep_prod_hours_weekly %>% 
  filter(week %in% c(50, 51, 52, 1, 2), !(week %in% c(1, 2) & year == 2013))
```

    ## # A tibble: 23 x 5
    ## # Groups:   year [5]
    ##     year  week prod_hours excep_hours total_exceptions
    ##    <dbl> <dbl>      <dbl>       <dbl>            <dbl>
    ##  1  2013    50    148659.      41753.             5537
    ##  2  2013    51    140101.      44587.             5663
    ##  3  2013    52    100247.      37528.             4672
    ##  4  2014     1    128029.      36275.             4618
    ##  5  2014     2    152533.      39065.             5194
    ##  6  2014    50    152127.      44931.             5910
    ##  7  2014    51    142625.      45395.             5859
    ##  8  2014    52    103790.      37741.             4761
    ##  9  2015     1    133006.      36549.             4859
    ## 10  2015     2    156041.      40463.             5619
    ## # … with 13 more rows
…
