…
``` r
# Create a dataset for St Paul's Hospital Vacation
(vacation_weekly <- exception_hours %>% 
  filter(SITE == "St Paul's Hospital", EXCEPTION_GROUP == 'Vacation') %>% 
  # extract year and week
  mutate(year = year(SHIFT_DATE),
         week = week(SHIFT_DATE)) %>% 
  group_by(year, week) %>%
  summarise(count = n()) %>% 
  # remove the last week of each year (week 53), since they consider few days
  filter(week != 53)
)
```

    ## # A tibble: 260 x 3
    ## # Groups:   year [5]
    ##     year  week count
    ##    <dbl> <dbl> <int>
    ##  1  2013     1   296
    ##  2  2013     2   172
    ##  3  2013     3   134
    ##  4  2013     4   126
    ##  5  2013     5   137
    ##  6  2013     6   142
    ##  7  2013     7   198
    ##  8  2013     8   174
    ##  9  2013     9   128
    ## 10  2013    10   150
    ## # … with 250 more rows
…
# Create a dataset for sick
(sick_weekly <- exception_hours %>% 
  filter(SITE == "St Paul's Hospital",
         EXCEPTION_GROUP %in% c('Paid Sick', 'Unpaid Sick', 'Relief Sick')) %>% 
    # extract year and week
  mutate(year = year(SHIFT_DATE),
         week = week(SHIFT_DATE)) %>% 
  group_by(year, week) %>%
  summarise(count = n()) %>% 
  # remove the last week of each year (week 53), since they consider few days
  filter(week != 53)
)
```

    ## # A tibble: 260 x 3
    ## # Groups:   year [5]
    ##     year  week count
    ##    <dbl> <dbl> <int>
    ##  1  2013     1   199
    ##  2  2013     2   241
    ##  3  2013     3   271
    ##  4  2013     4   235
    ##  5  2013     5   189
    ##  6  2013     6   153
    ##  7  2013     7   187
    ##  8  2013     8   227
    ##  9  2013     9   227
    ## 10  2013    10   187
    ## # … with 250 more rows
…
**Observations:**

-   All analyses (monthly and weekly for productive hours, exception hours and number of exceptions) indicate an increasing trend over the years.
-   The weekly analyses show that the seasonal component has a trough every year during week 52, i.e. much lower numbers for productive hours, exception hours and number of exceptions in comparison to other surrounding weeks.

``` r
excep_prod_hours_weekly %>% 
  filter(week %in% c(50, 51, 52, 1, 2), !(week %in% c(1, 2) & year == 2013))
```

    ## # A tibble: 23 x 5
    ## # Groups:   year [5]
    ##     year  week prod_hours excep_hours total_exceptions
    ##    <dbl> <dbl>      <dbl>       <dbl>            <dbl>
    ##  1  2013    50     45577.       4818.              596
    ##  2  2013    51     42356.       4766.              574
    ##  3  2013    52     29639.       4011.              467
    ##  4  2014     1     39126.       4414.              531
    ##  5  2014     2     47063.       4602.              583
    ##  6  2014    50     46329.       5370.              699
    ##  7  2014    51     42251.       5131.              619
    ##  8  2014    52     30295.       3977.              469
    ##  9  2015     1     40492.       4360.              526
    ## 10  2015     2     47767.       4658.              608
    ## # … with 13 more rows
…
